{
  "project_info": {
    "project_number": "8350169254",
    "firebase_url": "https://kriminalapp-31dc8.firebaseio.com",
    "project_id": "kriminalapp-31dc8",
    "storage_bucket": "kriminalapp-31dc8.appspot.com"
  },
  "client": [
    {
      "client_info": {
        "mobilesdk_app_id": "1:8350169254:android:fbe33fd12dbe7d87",
        "android_client_info": {
          "package_name": "kriminalapp.lukman.com"
        }
      },
      "oauth_client": [
        {
          "client_id": "8350169254-0i7vhhkat2999ngmkmbl3d605u7fpdul.apps.googleusercontent.com",
          "client_type": 1,
          "android_info": {
            "package_name": "kriminalapp.lukman.com",
            "certificate_hash": "66c6db5cafb90a79ff86a5a516048a4d43478de3"
          }
        },
        {
          "client_id": "8350169254-hfkh99i6vfi0rg3ssi0jviudk9bvab9u.apps.googleusercontent.com",
          "client_type": 1,
          "android_info": {
            "package_name": "kriminalapp.lukman.com",
            "certificate_hash": "c463ff1b8ce93121268df034b8038879140384f9"
          }
        },
        {
          "client_id": "8350169254-cgcssuqq3d8m7f08q3odurg2k1sqmms3.apps.googleusercontent.com",
          "client_type": 1,
          "android_info": {
            "package_name": "kriminalapp.lukman.com",
            "certificate_hash": "bdd0359d33e2c3e595b82164effe6947bf99aeee"
          }
        },
        {
          "client_id": "8350169254-jqg9u0bei2jcjb3s8nrc7e09123fmpf5.apps.googleusercontent.com",
          "client_type": 3
        }
      ],
      "api_key": [
        {
          "current_key": "AIzaSyCRkPIXJ1z42SEtQpgQ1ZokPEV9iY-W0-Y"
        }
      ],
      "services": {
        "appinvite_service": {
          "other_platform_oauth_client": [
            {
              "client_id": "8350169254-jqg9u0bei2jcjb3s8nrc7e09123fmpf5.apps.googleusercontent.com",
              "client_type": 3
            }
          ]
        }
      }
    },
    {
      "client_info": {
        "mobilesdk_app_id": "1:8350169254:android:8a4a7a199c1aca27a35c67",
        "android_client_info": {
          "package_name": "lombok.app.com"
        }
      },
      "oauth_client": [
        {
          "client_id": "8350169254-av18n6v1ma6pu9rbig0dvj2lb8q6sn3n.apps.googleusercontent.com",
          "client_type": 1,
          "android_info": {
            "package_name": "lombok.app.com",
            "certificate_hash": "b968593622a250783f0c7c32fed1df52297ae537"
          }
        },
        {
          "client_id": "8350169254-hl51trjm9334ogg4ebd8spsegpebibk3.apps.googleusercontent.com",
          "client_type": 1,
          "android_info": {
            "package_name": "lombok.app.com",
            "certificate_hash": "bdd0359d33e2c3e595b82164effe6947bf99aeee"
          }
        },
        {
          "client_id": "8350169254-jqg9u0bei2jcjb3s8nrc7e09123fmpf5.apps.googleusercontent.com",
          "client_type": 3
        }
      ],
      "api_key": [
        {
          "current_key": "AIzaSyCRkPIXJ1z42SEtQpgQ1ZokPEV9iY-W0-Y"
        }
      ],
      "services": {
        "appinvite_service": {
          "other_platform_oauth_client": [
            {
              "client_id": "8350169254-jqg9u0bei2jcjb3s8nrc7e09123fmpf5.apps.googleusercontent.com",
              "client_type": 3
            }
          ]
        }
      }
    }
  ],
  "configuration_version": "1"
}